  340  nano 524994.txt
  341  ls
  342  git switch -c Homework03
  343  git push --set-upstream origin Homework03
  344  git add 524994.txt
  345  git status
  346  git commit -m "Created UCO.txt file and added feedback"
  347  git push
